…
### Create a sum of from subset of variables

Below, we select a subset of columns from `df_resume`, take the sum across them, and add the sum as a new variable. Here, we locate the new variable right after those columns that it summed.


```r
df_resume %>% 
  mutate(new_sum = rowSums(select(df_resume, call:id_var))) %>% 
  relocate(new_sum, .after = id_var)
```

```
## # A tibble: 4,870 × 8
##    firstname sex    race   call  wave id_var new_sum isFemale
##    <chr>     <chr>  <chr> <dbl> <dbl>  <int>   <dbl> <lgl>   
##  1 Allison   female white     0     3      1       4 TRUE    
##  2 Kristen   female white     0     3      2       5 TRUE    
##  3 Lakisha   female black     0     3      3       6 TRUE    
##  4 Latonya   female black     0     3      4       7 TRUE    
##  5 Carrie    female white     0     3      5       8 TRUE    
##  6 Jay       male   white     0     3      6       9 FALSE   
##  7 Jill      female white     0     3      7      10 TRUE    
##  8 Kenya     female black     0     3      8      11 TRUE    
##  9 Latonya   female black     0     3      9      12 TRUE    
## 10 Tyrone    male   black     0     3     10      13 FALSE   
## # … with 4,860 more rows
```
…
```r
df_resume %>% mutate(
  race = case_when(
    race == "white" ~ "race_wh",       # recode "white" to "race_wh"
    race == "black" ~ "race_bl",       # recode "black" to "race_bl"
    race == "missing" ~ NA_character_, # recode "missing" to (character) NA
    TRUE ~ race                        # recode any other value to original value of race
  )
)
```

```
## # A tibble: 4,870 × 7
##    firstname sex    race     call  wave id_var isFemale
##    <chr>     <chr>  <chr>   <dbl> <dbl>  <int> <lgl>   
##  1 Allison   female race_wh     0     3      1 TRUE    
##  2 Kristen   female race_wh     0     3      2 TRUE    
##  3 Lakisha   female race_bl     0     3      3 TRUE    
##  4 Latonya   female race_bl     0     3      4 TRUE    
##  5 Carrie    female race_wh     0     3      5 TRUE    
##  6 Jay       male   race_wh     0     3      6 FALSE   
##  7 Jill      female race_wh     0     3      7 TRUE    
##  8 Kenya     female race_bl     0     3      8 TRUE    
##  9 Latonya   female race_bl     0     3      9 TRUE    
## 10 Tyrone    male   race_bl     0     3     10 FALSE   
## # … with 4,860 more rows
```

There is also `recode()`, but its lifecycle status is "questioning":


```r
df_resume %>% mutate(
  race = recode(race,
    "white" = 0,
    "black" = 1
    )
)
```

```
## # A tibble: 4,870 × 7
##    firstname sex     race  call  wave id_var isFemale
##    <chr>     <chr>  <dbl> <dbl> <dbl>  <int> <lgl>   
##  1 Allison   female     0     0     3      1 TRUE    
##  2 Kristen   female     0     0     3      2 TRUE    
##  3 Lakisha   female     1     0     3      3 TRUE    
##  4 Latonya   female     1     0     3      4 TRUE    
##  5 Carrie    female     0     0     3      5 TRUE    
##  6 Jay       male       0     0     3      6 FALSE   
##  7 Jill      female     0     0     3      7 TRUE    
##  8 Kenya     female     1     0     3      8 TRUE    
##  9 Latonya   female     1     0     3      9 TRUE    
## 10 Tyrone    male       1     0     3     10 FALSE   
## # … with 4,860 more rows
```
…
The tidyverse includes the `lubridate` package. If you know the format of the character strings, there are many shortcut parsers like `mdy()`. Below, we recode character dates to be of date type:


```r
df_resume %>% mutate(
  dob_date = mdy(dob)
)
```

```
## # A tibble: 4,870 × 9
##    firstname sex    race   call  wave id_var isFemale dob        dob_date  
##    <chr>     <chr>  <chr> <dbl> <dbl>  <int> <lgl>    <chr>      <date>    
##  1 Allison   female white     0     3      1 TRUE     4/3/2000   2000-04-03
##  2 Kristen   female white     0     3      2 TRUE     12/16/1944 1944-12-16
##  3 Lakisha   female black     0     3      3 TRUE     10/2/1929  1929-10-02
##  4 Latonya   female black     0     3      4 TRUE     4/20/1956  1956-04-20
##  5 Carrie    female white     0     3      5 TRUE     9/10/1995  1995-09-10
##  6 Jay       male   white     0     3      6 FALSE    2/25/2000  2000-02-25
##  7 Jill      female white     0     3      7 TRUE     7/17/1908  1908-07-17
##  8 Kenya     female black     0     3      8 TRUE     10/10/1912 1912-10-10
##  9 Latonya   female black     0     3      9 TRUE     8/28/1955  1955-08-28
## 10 Tyrone    male   black     0     3     10 FALSE    3/4/1950   1950-03-04
## # … with 4,860 more rows
```

If we aren't sure of the format, or there are several, we use `parse_date_time()` and specify several "orders" of date format. `parse()` functions do their best to use the information in "orders". Below, `"dmy"` alone would recode only the ambiguous dates, assuming they were in day-month-year order. Adding `"%m/%d/%Y"` instructs `parse()` to look for `month/day/year` formats. Finding many that are unambiguously that format, it assumes that format for the new variable. 


```r
df_resume %>% mutate(
  dob_date = as_date(    
    parse_date_time(dob, 
                    orders = c("dmy", "%m/%d/%Y"))
  )
)
```

```
## # A tibble: 4,870 × 9
##    firstname sex    race   call  wave id_var isFemale dob        dob_date  
##    <chr>     <chr>  <chr> <dbl> <dbl>  <int> <lgl>    <chr>      <date>    
##  1 Allison   female white     0     3      1 TRUE     4/3/2000   2000-04-03
##  2 Kristen   female white     0     3      2 TRUE     12/16/1944 1944-12-16
##  3 Lakisha   female black     0     3      3 TRUE     10/2/1929  1929-10-02
##  4 Latonya   female black     0     3      4 TRUE     4/20/1956  1956-04-20
##  5 Carrie    female white     0     3      5 TRUE     9/10/1995  1995-09-10
##  6 Jay       male   white     0     3      6 FALSE    2/25/2000  2000-02-25
##  7 Jill      female white     0     3      7 TRUE     7/17/1908  1908-07-17
##  8 Kenya     female black     0     3      8 TRUE     10/10/1912 1912-10-10
##  9 Latonya   female black     0     3      9 TRUE     8/28/1955  1955-08-28
## 10 Tyrone    male   black     0     3     10 FALSE    3/4/1950   1950-03-04
## # … with 4,860 more rows
```


### Make an age variable 

To make an age variable from the year component, 


```r
df_resume %>% mutate(
  age = 2023 - year(dob_date)
)
```

```
## # A tibble: 4,870 × 10
##    firstname sex    race   call  wave id_var isFemale dob       dob_date     age
##    <chr>     <chr>  <chr> <dbl> <dbl>  <int> <lgl>    <chr>     <date>     <dbl>
##  1 Allison   female white     0     3      1 TRUE     4/3/2000  2000-04-03    23
##  2 Kristen   female white     0     3      2 TRUE     12/16/19… 1944-12-16    79
##  3 Lakisha   female black     0     3      3 TRUE     10/2/1929 1929-10-02    94
##  4 Latonya   female black     0     3      4 TRUE     4/20/1956 1956-04-20    67
##  5 Carrie    female white     0     3      5 TRUE     9/10/1995 1995-09-10    28
##  6 Jay       male   white     0     3      6 FALSE    2/25/2000 2000-02-25    23
##  7 Jill      female white     0     3      7 TRUE     7/17/1908 1908-07-17   115
##  8 Kenya     female black     0     3      8 TRUE     10/10/19… 1912-10-10   111
##  9 Latonya   female black     0     3      9 TRUE     8/28/1955 1955-08-28    68
## 10 Tyrone    male   black     0     3     10 FALSE    3/4/1950  1950-03-04    73
## # … with 4,860 more rows
```

For more precision, the participants' age today, 


```r
df_resume %>% mutate(
  age = as.numeric(
    interval(dob_date, today()), 
    "years")
)
```

```
## # A tibble: 4,870 × 10
##    firstname sex    race   call  wave id_var isFemale dob       dob_date     age
##    <chr>     <chr>  <chr> <dbl> <dbl>  <int> <lgl>    <chr>     <date>     <dbl>
##  1 Allison   female white     0     3      1 TRUE     4/3/2000  2000-04-03  22.9
##  2 Kristen   female white     0     3      2 TRUE     12/16/19… 1944-12-16  78.2
##  3 Lakisha   female black     0     3      3 TRUE     10/2/1929 1929-10-02  93.4
##  4 Latonya   female black     0     3      4 TRUE     4/20/1956 1956-04-20  66.8
##  5 Carrie    female white     0     3      5 TRUE     9/10/1995 1995-09-10  27.4
##  6 Jay       male   white     0     3      6 FALSE    2/25/2000 2000-02-25  23.0
##  7 Jill      female white     0     3      7 TRUE     7/17/1908 1908-07-17 115. 
##  8 Kenya     female black     0     3      8 TRUE     10/10/19… 1912-10-10 110. 
##  9 Latonya   female black     0     3      9 TRUE     8/28/1955 1955-08-28  67.5
## 10 Tyrone    male   black     0     3     10 FALSE    3/4/1950  1950-03-04  73.0
## # … with 4,860 more rows
```
…
```
## # A tibble: 108 × 5
## # Groups:   firstname [36]
##    firstname dob       dob_date   dob_month  dob_month_count
##    <chr>     <chr>     <date>     <date>               <dbl>
##  1 Aisha     2/2/1900  1900-02-02 1900-02-01               0
##  2 Aisha     2/1/1900  1900-02-01 1900-02-01               0
##  3 Aisha     9/21/1900 1900-09-21 1900-09-01               7
##  4 Allison   1/17/1900 1900-01-17 1900-01-01               0
##  5 Allison   1/22/1900 1900-01-22 1900-01-01               0
##  6 Allison   2/10/1900 1900-02-10 1900-02-01               1
##  7 Anne      2/24/1900 1900-02-24 1900-02-01               0
##  8 Anne      3/20/1900 1900-03-20 1900-03-01               1
##  9 Anne      8/13/1900 1900-08-13 1900-08-01               6
## 10 Brad      5/14/1900 1900-05-14 1900-05-01               0
## # … with 98 more rows
```
…
Since there are exactly the same number of résumés with each race, these count
distributions are comparable.

## Calculate a data summary

### Proportions for a categorical variable


```r
df_resume %>% count(firstname) %>% mutate(proportion = n / sum(n))
```

```
## # A tibble: 36 × 3
##    firstname     n proportion
##    <chr>     <int>      <dbl>
##  1 Aisha       180    0.0370 
##  2 Allison     232    0.0476 
##  3 Anne        242    0.0497 
##  4 Brad         63    0.0129 
##  5 Brendan      65    0.0133 
##  6 Brett        59    0.0121 
##  7 Carrie      168    0.0345 
##  8 Darnell      42    0.00862
##  9 Ebony       208    0.0427 
## 10 Emily       227    0.0466 
## # … with 26 more rows
```
…
