A R Basics | SOPs for The Lab @ DC
…
Note that mutate() needs a dataframe as its first argument. Above, we pass
df_resume to mutate() using the pipe.

A.5.4 Create a sum of from subset of variables

Below, we select a subset of columns from df_resume, take the sum across them, and add the sum as a new variable. Here, we locate the new variable right after those columns that it summed.

df_resume %>% 
  mutate(new_sum = rowSums(select(df_resume, call:id_var))) %>% 
  relocate(new_sum, .after = id_var)

## # A tibble: 4,870 × 8
##    firstname sex    race   call  wave id_var new_sum isFemale
##    <chr>     <chr>  <chr> <dbl> <dbl>  <int>   <dbl> <lgl>   
##  1 Allison   female white     0     3      1       4 TRUE    
##  2 Kristen   female white     0     3      2       5 TRUE    
##  3 Lakisha   female black     0     3      3       6 TRUE    
##  4 Latonya   female black     0     3      4       7 TRUE    
##  5 Carrie    female white     0     3      5       8 TRUE    
##  6 Jay       male   white     0     3      6       9 FALSE   
##  7 Jill      female white     0     3      7      10 TRUE    
##  8 Kenya     female black     0     3      8      11 TRUE    
##  9 Latonya   female black     0     3      9      12 TRUE    
## 10 Tyrone    male   black     0     3     10      13 FALSE   
## # … with 4,860 more rows

A.6 Recode a variable’s values

Instead of creating a new variable as above, we can use mutate() and case_when() to recode a variable. Suppose we wanted to code race:

df_resume %>% mutate(
  race = case_when(
    race == "white" ~ "race_wh",       # recode "white" to "race_wh"
    race == "black" ~ "race_bl",       # recode "black" to "race_bl"
    race == "missing" ~ NA_character_, # recode "missing" to (character) NA
    TRUE ~ race                        # recode any other value to original value of race
  )
)

## # A tibble: 4,870 × 7
##    firstname sex    race     call  wave id_var isFemale
##    <chr>     <chr>  <chr>   <dbl> <dbl>  <int> <lgl>   
##  1 Allison   female race_wh     0     3      1 TRUE    
##  2 Kristen   female race_wh     0     3      2 TRUE    
##  3 Lakisha   female race_bl     0     3      3 TRUE    
##  4 Latonya   female race_bl     0     3      4 TRUE    
##  5 Carrie    female race_wh     0     3      5 TRUE    
##  6 Jay       male   race_wh     0     3      6 FALSE   
##  7 Jill      female race_wh     0     3      7 TRUE    
##  8 Kenya     female race_bl     0     3      8 TRUE    
##  9 Latonya   female race_bl     0     3      9 TRUE    
## 10 Tyrone    male   race_bl     0     3     10 FALSE   
## # … with 4,860 more rows

There is also recode(), but its lifecycle status is “questioning”:

df_resume %>% mutate(
  race = recode(race,
    "white" = 0,
    "black" = 1
    )
)

## # A tibble: 4,870 × 7
##    firstname sex     race  call  wave id_var isFemale
##    <chr>     <chr>  <dbl> <dbl> <dbl>  <int> <lgl>   
##  1 Allison   female     0     0     3      1 TRUE    
##  2 Kristen   female     0     0     3      2 TRUE    
##  3 Lakisha   female     1     0     3      3 TRUE    
##  4 Latonya   female     1     0     3      4 TRUE    
##  5 Carrie    female     0     0     3      5 TRUE    
##  6 Jay       male       0     0     3      6 FALSE   
##  7 Jill      female     0     0     3      7 TRUE    
##  8 Kenya     female     1     0     3      8 TRUE    
##  9 Latonya   female     1     0     3      9 TRUE    
## 10 Tyrone    male       1     0     3     10 FALSE   
## # … with 4,860 more rows
…
## # A tibble: 3 × 8
##   firstname sex    race   call  wave id_var isFemale dob      
##   <chr>     <chr>  <chr> <dbl> <dbl>  <int> <lgl>    <chr>    
## 1 Allison   female white     0     3      1 TRUE     7/20/1981
## 2 Kristen   female white     0     3      2 TRUE     2/24/1979
## 3 Lakisha   female black     0     3      3 TRUE     8/1/1921

The tidyverse includes the lubridate package. If you know the format of the character strings, there are many shortcut parsers like mdy(). Below, we recode character dates to be of date type:

df_resume %>% mutate(
  dob_date = mdy(dob)
)

## # A tibble: 4,870 × 9
##    firstname sex    race   call  wave id_var isFemale dob        dob_date  
##    <chr>     <chr>  <chr> <dbl> <dbl>  <int> <lgl>    <chr>      <date>    
##  1 Allison   female white     0     3      1 TRUE     7/20/1981  1981-07-20
##  2 Kristen   female white     0     3      2 TRUE     2/24/1979  1979-02-24
##  3 Lakisha   female black     0     3      3 TRUE     8/1/1921   1921-08-01
##  4 Latonya   female black     0     3      4 TRUE     3/15/1955  1955-03-15
##  5 Carrie    female white     0     3      5 TRUE     10/7/1949  1949-10-07
##  6 Jay       male   white     0     3      6 FALSE    5/12/1901  1901-05-12
##  7 Jill      female white     0     3      7 TRUE     2/1/1941   1941-02-01
##  8 Kenya     female black     0     3      8 TRUE     2/4/1980   1980-02-04
##  9 Latonya   female black     0     3      9 TRUE     12/15/1946 1946-12-15
## 10 Tyrone    male   black     0     3     10 FALSE    5/12/1974  1974-05-12
## # … with 4,860 more rows

If we aren’t sure of the format, or there are several, we use parse_date_time() and specify several “orders” of date format. parse() functions do their best to use the information in “orders”. Below, "dmy" alone would recode only the ambiguous dates, assuming they were in day-month-year order. Adding "%m/%d/%Y" instructs parse() to look for month/day/year formats. Finding many that are unambiguously that format, it assumes that format for the new variable.

df_resume %>% mutate(
  dob_date = as_date(    
    parse_date_time(dob, 
                    orders = c("dmy", "%m/%d/%Y"))
  )
)

## # A tibble: 4,870 × 9
##    firstname sex    race   call  wave id_var isFemale dob        dob_date  
##    <chr>     <chr>  <chr> <dbl> <dbl>  <int> <lgl>    <chr>      <date>    
##  1 Allison   female white     0     3      1 TRUE     7/20/1981  1981-07-20
##  2 Kristen   female white     0     3      2 TRUE     2/24/1979  1979-02-24
##  3 Lakisha   female black     0     3      3 TRUE     8/1/1921   1921-08-01
##  4 Latonya   female black     0     3      4 TRUE     3/15/1955  1955-03-15
##  5 Carrie    female white     0     3      5 TRUE     10/7/1949  1949-10-07
##  6 Jay       male   white     0     3      6 FALSE    5/12/1901  1901-05-12
##  7 Jill      female white     0     3      7 TRUE     2/1/1941   1941-02-01
##  8 Kenya     female black     0     3      8 TRUE     2/4/1980   1980-02-04
##  9 Latonya   female black     0     3      9 TRUE     12/15/1946 1946-12-15
## 10 Tyrone    male   black     0     3     10 FALSE    5/12/1974  1974-05-12
## # … with 4,860 more rows

A.7.1 Make an age variable

To make an age variable from the year component,

df_resume %>% mutate(
  age = 2023 - year(dob_date)
)

## # A tibble: 4,870 × 10
##    firstname sex    race   call  wave id_var isFemale dob       dob_date     age
##    <chr>     <chr>  <chr> <dbl> <dbl>  <int> <lgl>    <chr>     <date>     <dbl>
##  1 Allison   female white     0     3      1 TRUE     7/20/1981 1981-07-20    42
##  2 Kristen   female white     0     3      2 TRUE     2/24/1979 1979-02-24    44
##  3 Lakisha   female black     0     3      3 TRUE     8/1/1921  1921-08-01   102
##  4 Latonya   female black     0     3      4 TRUE     3/15/1955 1955-03-15    68
##  5 Carrie    female white     0     3      5 TRUE     10/7/1949 1949-10-07    74
##  6 Jay       male   white     0     3      6 FALSE    5/12/1901 1901-05-12   122
##  7 Jill      female white     0     3      7 TRUE     2/1/1941  1941-02-01    82
##  8 Kenya     female black     0     3      8 TRUE     2/4/1980  1980-02-04    43
##  9 Latonya   female black     0     3      9 TRUE     12/15/19… 1946-12-15    77
## 10 Tyrone    male   black     0     3     10 FALSE    5/12/1974 1974-05-12    49
## # … with 4,860 more rows

For more precision, the participants’ age today,

df_resume %>% mutate(
  age = as.numeric(
    interval(dob_date, today()), 
    "years")
)

## # A tibble: 4,870 × 10
##    firstname sex    race   call  wave id_var isFemale dob       dob_date     age
##    <chr>     <chr>  <chr> <dbl> <dbl>  <int> <lgl>    <chr>     <date>     <dbl>
##  1 Allison   female white     0     3      1 TRUE     7/20/1981 1981-07-20  41.7
##  2 Kristen   female white     0     3      2 TRUE     2/24/1979 1979-02-24  44.1
##  3 Lakisha   female black     0     3      3 TRUE     8/1/1921  1921-08-01 102. 
##  4 Latonya   female black     0     3      4 TRUE     3/15/1955 1955-03-15  68.0
##  5 Carrie    female white     0     3      5 TRUE     10/7/1949 1949-10-07  73.5
##  6 Jay       male   white     0     3      6 FALSE    5/12/1901 1901-05-12 122. 
##  7 Jill      female white     0     3      7 TRUE     2/1/1941  1941-02-01  82.1
##  8 Kenya     female black     0     3      8 TRUE     2/4/1980  1980-02-04  43.1
##  9 Latonya   female black     0     3      9 TRUE     12/15/19… 1946-12-15  76.3
## 10 Tyrone    male   black     0     3     10 FALSE    5/12/1974 1974-05-12  48.9
## # … with 4,860 more rows
…
Below, we group by firstname, then round all months to the first date of the month, then count those months (within firstname). We show the first three rows for each participant.

df_resume %>% 
  # Ensure ranking _within_ firstname:
  group_by(firstname) %>% 
  # Round all months to first date of the month, then count:
  mutate(dob_month = floor_date(dob_date, unit = "month"), 
         dob_month_count = (min(dob_month) %--% dob_month) %/% months(1)
         ) %>%
  # For presentation, select, arrange, and slice:
  select(firstname, dob, dob_date, dob_month, dob_month_count) %>% 
  arrange(firstname, dob_month_count) %>% 
  slice(1:3)

## # A tibble: 108 × 5
## # Groups:   firstname [36]
##    firstname dob        dob_date   dob_month  dob_month_count
##    <chr>     <chr>      <date>     <date>               <dbl>
##  1 Aisha     5/4/1900   1900-05-04 1900-05-01               0
##  2 Aisha     8/28/1901  1901-08-28 1901-08-01              15
##  3 Aisha     7/19/1902  1902-07-19 1902-07-01              26
##  4 Allison   3/5/1900   1900-03-05 1900-03-01               0
##  5 Allison   6/15/1900  1900-06-15 1900-06-01               3
##  6 Allison   9/17/1900  1900-09-17 1900-09-01               6
##  7 Anne      10/26/1900 1900-10-26 1900-10-01               0
##  8 Anne      4/19/1901  1901-04-19 1901-04-01               6
##  9 Anne      5/16/1901  1901-05-16 1901-05-01               7
## 10 Brad      6/14/1901  1901-06-14 1901-06-01               0
## # … with 98 more rows
…
Since there are exactly the same number of résumés with each race, these count
distributions are comparable.

A.10 Calculate a data summary

A.10.1 Proportions for a categorical variable

df_resume %>% count(firstname) %>% mutate(proportion = n / sum(n))

## # A tibble: 36 × 3
##    firstname     n proportion
##    <chr>     <int>      <dbl>
##  1 Aisha       180    0.0370 
##  2 Allison     232    0.0476 
##  3 Anne        242    0.0497 
##  4 Brad         63    0.0129 
##  5 Brendan      65    0.0133 
##  6 Brett        59    0.0121 
##  7 Carrie      168    0.0345 
##  8 Darnell      42    0.00862
##  9 Ebony       208    0.0427 
## 10 Emily       227    0.0466 
## # … with 26 more rows
…
